{
    "editor": [
        {
            "icon": "",
            "key": "preGameScreen",
            "header": "PreGameScreen",
            "disabled": false,
            "fields": [
                {
                    "key": "titleText",
                    "header": "Title Text",
                    "type": "text"
                },
                {
                    "key": "titleTextSize",
                    "header": "Title text size",
                    "type": "range",
                    "options": {
                        "minValue": 20,
                        "maxValue": 40,
                        "stepSize": "1"
                    }
                },
                {
                    "key": "playButtonText",
                    "header": "Play Button Text",
                    "type": "text"
                },
                {
                    "key": "buttonTextColor",
                    "header": "Play Button Text Color",
                    "type": "color"
                },
                {
                    "key": "backgroundImage",
                    "header": "Background Image",
                    "type": "image"
                },
                {
                    "key": "backgroundMode",
                    "header": "Background image mode",
                    "type": "dropdown",
                    "options": [
                        "cover",
                        "fit",
                        "stretch"
                    ]
                },
                {
                    "key": "backgroundColor",
                    "header": "background color",
                    "type": "color"
                },
                {
                    "key": "titleImage",
                    "header": "Header Image",
                    "type": "image"
                },
                {
                    "key": "titleImageSize",
                    "header": "Header image size",
                    "type": "range",
                    "options": {
                        "minValue": 150,
                        "maxValue": 400,
                        "stepSize": "1"
                    }
                },
                {
                    "key": "cardColor",
                    "header": "Card Color",
                    "type": "color"
                },
                {
                    "key": "buttonColor",
                    "header": "Play Button Color",
                    "type": "color"
                },
                {
                    "key": "fontFamily",
                    "header": "Google Font Name",
                    "type": "dropdown",
                    "options": [
                        "Fredoka One",
                        "Overpass",
                        "Martel",
                        "Roboto",
                        "Noto Sans HK",
                        "Alfa Slab One",
                        "Staatliches",
                        "Patrick Hand",
                        "Changa",
                        "Do Hyeon",
                        "Bree Serif"
                    ]
                },
                {
                    "key": "showLeaderboardButton",
                    "header": "Show leaderboard button",
                    "type": "boolean"
                },
                {
                    "key": "leaderboardButtonText",
                    "header": "Leaderboard button text",
                    "type": "text"
                },
                {
                    "key": "showSoundButton",
                    "header": "Show sound button",
                    "type": "boolean"
                },
                {
                    "key": "soundEnabledIcon",
                    "type": "image",
                    "header": "Sound enabled icon"
                },
                {
                    "key": "soundDisabledIcon",
                    "type": "image",
                    "header": "Sound disabled icon"
                }
            ]
        },
        {
            "icon": "",
            "key": "settings",
            "header": "Game Settings",
            "disabled": false,
            "fields": [
                {
                    "key": "scoreboardFont",
                    "header": "Google font for scoreboard",
                    "type": "dropdown",
                    "options": [
                        "Fredoka One",
                        "Overpass",
                        "Martel",
                        "Roboto",
                        "Noto Sans HK",
                        "Alfa Slab One",
                        "Staatliches",
                        "Patrick Hand",
                        "Changa",
                        "Do Hyeon",
                        "Bree Serif"
                    ]
                },
                {
                    "key": "billboardBackground",
                    "header": "Billboard background image",
                    "type": "image"
                },
                {
                    "key": "stadium",
                    "header": "Stadium image",
                    "type": "image"
                },
                {
                    "key": "xsign",
                    "header": "out sign",
                    "type": "image"
                },
                {
                    "key": "teams",
                    "type": "array",
                    "header": "Teams array",
                    "fields": [
                        {
                            "key": "team1",
                            "header": "Team1",
                            "type": "array",
                            "fields": [
                                {
                                    "key": "logo",
                                    "header": "Team logo",
                                    "type": "image"
                                },
                                {
                                    "key": "name",
                                    "header": "Team name",
                                    "type": "text"
                                },
                                {
                                    "key": "players",
                                    "header": "Players",
                                    "type": "array",
                                    "fields": [
                                        {
                                            "key": "player1",
                                            "header": "Player",
                                            "type": "array",
                                            "fields": [
                                                {
                                                    "key": "name",
                                                    "header": "Player name",
                                                    "type": "text"
                                                },
                                                {
                                                    "key": "head",
                                                    "header": "Head image",
                                                    "type": "image"
                                                },
                                                {
                                                    "key": "body",
                                                    "header": "Shirt color",
                                                    "type": "color"
                                                },
                                                {
                                                    "key": "cap",
                                                    "header": "Cap color",
                                                    "type": "color"
                                                },
                                                {
                                                    "key": "showCap",
                                                    "header": "Show player cap",
                                                    "type": "boolean"
                                                },
                                                {
                                                    "key": "legs",
                                                    "header": "Legs color",
                                                    "type": "color"
                                                }
                                            ]
                                        }
                                    ]
                                }
                            ]
                        },
                        {
                            "key": "team2",
                            "header": "Team2",
                            "type": "array",
                            "fields": [
                                {
                                    "key": "logo",
                                    "header": "Team logo",
                                    "type": "image"
                                },
                                {
                                    "key": "name",
                                    "header": "Team name",
                                    "type": "text"
                                },
                                {
                                    "key": "players",
                                    "header": "Players",
                                    "type": "array",
                                    "fields": [
                                        {
                                            "key": "player1",
                                            "header": "Player",
                                            "type": "array",
                                            "fields": [
                                                {
                                                    "key": "name",
                                                    "header": "Player name",
                                                    "type": "text"
                                                },
                                                {
                                                    "key": "head",
                                                    "header": "Head image",
                                                    "type": "image"
                                                },
                                                {
                                                    "key": "body",
                                                    "header": "Shirt color",
                                                    "type": "color"
                                                },
                                                {
                                                    "key": "cap",
                                                    "header": "Cap color",
                                                    "type": "color"
                                                },
                                                {
                                                    "key": "showCap",
                                                    "header": "Show player cap",
                                                    "type": "boolean"
                                                },
                                                {
                                                    "key": "legs",
                                                    "header": "Legs color",
                                                    "type": "color"
                                                }
                                            ]
                                        }
                                    ]
                                }
                            ]
                        },
                        {
                            "key": "team3",
                            "header": "Team3",
                            "type": "array",
                            "fields": [
                                {
                                    "key": "logo",
                                    "header": "Team logo",
                                    "type": "image"
                                },
                                {
                                    "key": "name",
                                    "header": "Team name",
                                    "type": "text"
                                },
                                {
                                    "key": "players",
                                    "header": "Players",
                                    "type": "array",
                                    "fields": [
                                        {
                                            "key": "player1",
                                            "header": "Player",
                                            "type": "array",
                                            "fields": [
                                                {
                                                    "key": "name",
                                                    "header": "Player name",
                                                    "type": "text"
                                                },
                                                {
                                                    "key": "head",
                                                    "header": "Head image",
                                                    "type": "image"
                                                },
                                                {
                                                    "key": "body",
                                                    "header": "Shirt color",
                                                    "type": "color"
                                                },
                                                {
                                                    "key": "cap",
                                                    "header": "Cap color",
                                                    "type": "color"
                                                },
                                                {
                                                    "key": "showCap",
                                                    "header": "Show player cap",
                                                    "type": "boolean"
                                                },
                                                {
                                                    "key": "legs",
                                                    "header": "Legs color",
                                                    "type": "color"
                                                }
                                            ]
                                        }
                                    ]
                                }
                            ]
                        }
                    ]
                },
                {
                    "key": "timeGap",
                    "header": "Time between ball throw",
                    "type": "range",
                    "options": {
                        "minValue": 1,
                        "maxValue": 4,
                        "stepSize": 0.5
                    }
                },
                {
                    "key": "wickets",
                    "header": "Wickets color",
                    "type": "color"
                },
                {
                    "key": "textColor",
                    "header": "In Game Text Color",
                    "type": "color"
                },
                {
                    "key": "cricketBall",
                    "header": "Cricket ball",
                    "type": "image"
                },
                {
                    "key": "cricketBat",
                    "header": "Cricket bat",
                    "type": "image"
                },
                {
                    "key": "batColor",
                    "header": "Bat color",
                    "type": "color"
                },
                {
                    "key": "ads",
                    "header": "Billboard ad",
                    "type": "array",
                    "fields": [
                        {
                            "key": "ad1",
                            "header": "Ad1",
                            "type": "image"
                        },
                        {
                            "key": "ad2",
                            "header": "Ad2",
                            "type": "image"
                        },
                        {
                            "key": "ad3",
                            "header": "Ad3",
                            "type": "image"
                        }
                    ]
                },
                {
                    "key": "adTime",
                    "header": "Ad duration (in seconds)",
                    "type": "range",
                    "options": {
                        "maxValue": 30,
                        "minValue": 3,
                        "stepSize": 1
                    }
                },
                {
                    "key": "ballHit",
                    "header": "Ball hit sound",
                    "type": "sound"
                },
                {
                    "key": "ballThrow",
                    "header": "Ball throw sounds",
                    "type": "sound"
                },
                {
                    "key": "whistle",
                    "header": "whistle",
                    "type": "sound"
                },
                {
                    "key": "runSound",
                    "header": "6 runs sound",
                    "type": "sound"
                },
                {
                    "key": "theme",
                    "header": "Background Music",
                    "type": "sound"
                },
                {
                    "key": "volume",
                    "header": "Background music volume",
                    "type": "range",
                    "options": {
                        "minValue": 0,
                        "maxValue": 1,
                        "stepSize": "0.1"
                    }
                }
            ]
        },
        {
            "icon": "",
            "key": "postGameScreen",
            "header": "Post Game Screen",
            "disabled": false,
            "fields": [
                {
                    "key": "scoreText",
                    "header": "Text before score",
                    "type": "text"
                },
                {
                    "key": "textColor",
                    "header": "Text Color",
                    "type": "color"
                },
                {
                    "key": "buttonTextColor",
                    "header": "Button text color",
                    "type": "color"
                },
                {
                    "key": "cardColor",
                    "header": "Card Background Color",
                    "type": "color"
                },
                {
                    "key": "playButtonText",
                    "header": "Play again button text",
                    "type": "text"
                },
                {
                    "key": "buttonColor",
                    "header": "Buttons color",
                    "type": "color"
                },
                {
                    "key": "buttonTextColor",
                    "header": "Buttons text color",
                    "type": "color"
                },
                {
                    "key": "showText",
                    "header": "Show custom text",
                    "type": "boolean"
                },
                {
                    "key": "customText",
                    "header": "Custom text",
                    "type": "text"
                },
                {
                    "key": "submitName",
                    "header": "Show name field",
                    "type": "boolean"
                },
                {
                    "key": "submitEmail",
                    "header": "Show email field",
                    "type": "boolean"
                },
                {
                    "key": "submitScoreText",
                    "header": "Submit score button text",
                    "type": "text"
                },
                {
                    "key": "showLeadeboardButtonPostGameScreen",
                    "header": "Show Leadeboard Button",
                    "type": "boolean"
                },
                {
                    "key": "leaderboardButtonText",
                    "type": "text",
                    "header": "Leadeboard button text"
                },
                {
                    "key": "showCTA",
                    "header": "Show CTA Button",
                    "type": "boolean"
                },
                {
                    "key": "ctaText",
                    "header": "CTA text",
                    "type": "text"
                },
                {
                    "key": "ctaButtonText",
                    "header": "CTA button text",
                    "type": "text"
                },
                {
                    "key": "ctaUrl",
                    "header": "CTA Link",
                    "type": "text"
                }
            ]
        }
    ],
    "config": {
        "preGameScreen": {
            "titleText": "Mohsin'sGame",
            "titleTextSize": 30,
            "playButtonText": "Play",
            "cardColor": "#ffffff",
            "buttonColor": "#000000",
            "buttonTextColor": "#ffffff",
            "backgroundImage": "https://frontend.apps.playcent.com/6c8736c598cb45c68ffd59650bdccc77/assets/cricket background (1).jpg",
            "backgroundMode": "stretch",
            "backgroundColor": "#ffffff",
            "titleImage": "https://frontend.apps.playcent.com/6c8736c598cb45c68ffd59650bdccc77/assets/cryp.png",
            "titleImageSize": 200,
            "fontFamily": "Overpass",
            "showLeaderboardButton": true,
            "leaderboardButtonText": "Leaderboard",
            "showSoundButton": true,
            "soundEnabledIcon": "https://frontend.apps.playcent.com/cricket/assets/sound_on.png",
            "soundDisabledIcon": "https://frontend.apps.playcent.com/cricket/assets/sound_off.png"
        },
        "settings": {
            "scoreboardFont": "Fredoka One",
            "billboardBackground": "https://frontend.apps.playcent.com/71813758a2a949dbaa9a98177164608d/assets/black-hole-hawkings_1024.jpg",
            "textColor": "#000",
            "stadium": "https://frontend.apps.playcent.com/6c8736c598cb45c68ffd59650bdccc77/assets/cricket_stadium_(4)_(1) (5).jpeg",
            "xsign": "https://frontend.apps.playcent.com/6c8736c598cb45c68ffd59650bdccc77/assets/djvstock170207114-removebg-preview.png",
            "teams": {
                "team1": {
                    "name": "DevX",
                    "logo": "https://frontend.apps.playcent.com/6a7b7ae61e40443dae0b23a526acabb7/assets/imageedit_5_2718665687.png",
                    "players": {
                        "player1": {
                            "name": "Umesh",
                            "head": "https://frontend.apps.playcent.com/6a7b7ae61e40443dae0b23a526acabb7/assets/Umesh-Uttamchandani-__1_-removebg-preview.png",
                            "body": "#1b1b1b",
                            "cap": "#505750",
                            "legs": "#808080",
                            "showCap": false
                        }
                    }
                },
                "team2": {
                    "name": "Legalwiz",
                    "logo": "https://frontend.apps.playcent.com/5cb99eb52a3a4d04aa6647b4c9323f28/assets/imageedit_4_9337018265.png",
                    "players": {
                        "player1": {
                            "name": "Shrijay",
                            "head": "https://frontend.apps.playcent.com/5cb99eb52a3a4d04aa6647b4c9323f28/assets/Shrijay-Profile-removebg-preview.png",
                            "body": "#bbdefb",
                            "cap": "#505750",
                            "legs": "#808080",
                            "showCap": false
                        }
                    }
                },
                "team3": {
                    "name": "Clientjoy",
                    "logo": "https://frontend.apps.playcent.com/5cb99eb52a3a4d04aa6647b4c9323f28/assets/xm9sozrbb5a5izw5omsp-removebg-preview.png",
                    "players": {
                        "player1": {
                            "name": "Yash",
                            "head": "https://frontend.apps.playcent.com/5cb99eb52a3a4d04aa6647b4c9323f28/assets/r1QI3C5S-removebg-preview.png",
                            "body": "#1652f0",
                            "cap": "#505750",
                            "legs": "#808080"
                        }
                    }
                }
            },
            "timeGap": 2,
            "wickets": "#e8dfc5",
            "cricketBall": "https://frontend.apps.playcent.com/6c8736c598cb45c68ffd59650bdccc77/assets/cricket_ball.png",
            "cricketBat": "https://frontend.apps.playcent.com/cricket/assets/cricket_bat.png",
            "batColor": "#ffffff",
            "ads": {
                "ad1": "https://frontend.apps.playcent.com/6a7b7ae61e40443dae0b23a526acabb7/assets/0 (4).jpeg",
                "ad2": "https://frontend.apps.playcent.com/3f69cf26982f4fe59bc20451b1321d5f/assets/maxresdefault (4).jpg",
                "ad3": "https://frontend.apps.playcent.com/3f69cf26982f4fe59bc20451b1321d5f/assets/Studio_Project (18).jpeg"
            },
            "adTime": 3,
            "ballHit": "https://frontend.apps.playcent.com/71813758a2a949dbaa9a98177164608d/assets/ball_hit (online-audio-converter.com) (1).mp3",
            "whistle": "https://frontend.apps.playcent.com/71813758a2a949dbaa9a98177164608d/assets/whistle (online-audio-converter.com).mp3",
            "runSound": "https://frontend.apps.playcent.com/71813758a2a949dbaa9a98177164608d/assets/From the vault MS Dhoni's best sixes Down Under (mp3cut.net).mp3",
            "ballThrow": "https://frontend.apps.playcent.com/71813758a2a949dbaa9a98177164608d/assets/ball_throw (online-audio-converter.com) (1).mp3",
            "theme": "https://frontend.apps.playcent.com/71813758a2a949dbaa9a98177164608d/assets/This is what 80000 Indians sound like!!! (mp3cut.net) (1).mp3",
            "volume": "0.3"
        },
        "postGameScreen": {
            "scoreText": "Your score is: ",
            "playButtonText": "Play Again",
            "buttonColor": "#000000",
            "cardColor": "#ffffff",
            "textColor": "#000000",
            "buttonTextColor": "#ffffff",
            "showLeadeboardButtonPostGameScreen": true,
            "submitScoreText": "Submit score",
            "leaderboardButtonText": "Leaderboard",
            "showText": false,
            "customText": "",
            "submitName": true,
            "submitEmail": false,
            "showCTA": true,
            "ctaText": "Checkout eChai",
            "ctaButtonText": "Go",
            "ctaUrl": "http://echai.network"
        }
    }
}